Data Science
…
library(p8105.datasets)

#
#view(instacart_df)

data("instacart")

instacart_df = 
  instacart %>% 
  as_tibble()

instacart_df

## # A tibble: 1,384,617 × 15
##    order_id product_id add_to_cart_order reordered user_id eval_set order_number
##       <int>      <int>             <int>     <int>   <int> <chr>           <int>
##  1        1      49302                 1         1  112108 train               4
##  2        1      11109                 2         1  112108 train               4
##  3        1      10246                 3         0  112108 train               4
##  4        1      49683                 4         0  112108 train               4
##  5        1      43633                 5         1  112108 train               4
##  6        1      13176                 6         0  112108 train               4
##  7        1      47209                 7         0  112108 train               4
##  8        1      22035                 8         1  112108 train               4
##  9       36      39612                 1         0   79431 train              23
## 10       36      19660                 2         1   79431 train              23
## # ℹ 1,384,607 more rows
## # ℹ 8 more variables: order_dow <int>, order_hour_of_day <int>,
## #   days_since_prior_order <int>, product_name <chr>, aisle_id <int>,
## #   department_id <int>, aisle <chr>, department <chr>
…
  filter(department == "alcohol") %>% 
  
   mutate(aisle = recode(aisle,
                        "beers coolers" = "Beer",
                        "red wines" = "Red Wine",
                        "specialty wines champagnes" = "Specialty Wines and Champagnes",
                        "spirits" = "Spirits",
                        "white wines" = "White Wine"
                        )
         ) 

instacart_impuslivity_df

## # A tibble: 5,598 × 6
##    order_hour_of_day product_name             aisle department add_to_cart_order
##                <int> <chr>                    <chr> <chr>                  <int>
##  1                17 Chardonnay Wine          Whit… alcohol                    3
##  2                10 Sauvignon Blanc          Whit… alcohol                    1
##  3                13 India Pale Ale           Beer  alcohol                    5
##  4                16 Lucky 13 Ale             Beer  alcohol                    1
##  5                16 Triple Distilled Vodka   Spir… alcohol                    2
##  6                12 American Concord Grape   Spec… alcohol                    9
##  7                18 Vodka                    Spir… alcohol                    1
##  8                18 Pinot Noir               Red … alcohol                    7
##  9                18 Chardonnay Sonoma Coast… Whit… alcohol                    8
## 10                18 Chianti Classico         Red … alcohol                    9
## # ℹ 5,588 more rows
## # ℹ 1 more variable: days_since_prior_order <int>
…
